1;Méndez;Fontenla;Ana María;36094450K;150101547757;1969-10-30;UNKNOWN;NULL;;;;NULL;NULL;UNKNOWN;Española
2;Outeiral;Otero;Iria;39455156J;361024614743;1986-12-11;UNKNOWN;NULL;;;;NULL;NULL;UNKNOWN;Española
3;Entenza;Fernández;Miguel Ángel;76811258K;360063883715;1965-06-01;MARRIED;Lugar Gatañal San Roque Balea Darbo, 34 P3;Lugar;Gatañal San Roque 34 P3;Balea;Cangas;36940;UNKNOWN;Española
4;Vázquez;Rodríguez;Marta;46908515S;151014839515;1980-04-17;UNKNOWN;NULL;;;;NULL;NULL;FIVE_YEARS_UNIVERSITY_DEGREE;Española
5;Campelos;Míguez;Irene;77000210M;361013027182;NULL;UNKNOWN;NULL;;;;NULL;NULL;UNKNOWN;Española
6;Couñago;Allu;Magaly;39454013C;361034247146;1990-06-25;SINGLE;Camiño da Formiga, 56;Camiño;da Formiga, 56;;Redondela;36818;FOUR_YEARS_UNIVERSITY_DEGREE;Española
7;Freiría;Iglesias;Araceli;36041409H;360058746755;NULL;UNKNOWN;NULL;;;;NULL;NULL;UNKNOWN;Española
8;Martínez;García;María;36108314Q;361012443970;1981-05-07;UNKNOWN;NULL;;;;NULL;NULL;UNKNOWN;Española
9;Camaño;Olivera;María Teresa;35272876F;361048596274;NULL;UNKNOWN;NULL;;;;NULL;NULL;UNKNOWN;Española
10;Fernández;Camaño;Ana Belén;73241757M;361023865217;1986-09-29;UNKNOWN;NULL;;;;NULL;NULL;UNKNOWN;Española
11;Prieto;Velasco;Estefanía;47281764C;281265069589;NULL;UNKNOWN;NULL;;;;NULL;NULL;UNKNOWN;Española
12;Bamio;Fernández;José Ignacio;76811819F;360070142336;1968-10-13;UNKNOWN;Rúa Alexandre Cribeiro 12 2 B;Rúa;Alexandre Cribeiro 12 2 B;;Cangas;36940;UNKNOWN;Española
13;Docampo;Martínez;Juan Alberto;78735484K;361007974593;1971-05-05;UNKNOWN;NULL;;;;NULL;NULL;UNKNOWN;Española
14;Guimerans;Budiño;Camilo;78734308H;361001437908;1970-12-31;MARRIED;Avenida de Andalucía, 1;Avenida;de Andalucía, 1;;Cangas;36940;UNKNOWN;Española
15;Guimerans;Budiño;David;78735057P;361010058275;1974-09-01;MARRIED;Rúa Camiño da Costa, 13;Rúa;Camiño da Costa, 13;Aldán;Cangas;36946;ESO_STUDIES;Española
16;Guimerans;Budiño;José Manuel;35280486G;360061417992;1958-03-07;MARRIED;Avenida Vigo CHOUPANA, 5 Casa;Avenida;Vigo 5 Casa;Choupana;Cangas;36940;UNKNOWN;Española
17;Guimerans;González;José Manuel;53117737L;361022446791;1982-07-08;SINGLE;Rúa Xosé Cornide, 4;Rúa;Xosé Cornide, 4;;Cangas;36940;MID_CYCLE;Española
18;Taboada;Casas;Agustín;35312728T;360075406002;NULL;UNKNOWN;Lugar Faxil-Agudelo 16;Lugar;Faxil-Agudelo 16;;Barro;36191;UNKNOWN;Española
19;Gonçalves;Pequeño;María Carmen;36171230G;361013004550;NULL;UNKNOWN;NULL;;;;NULL;NULL;UNKNOWN;Española
20;Costas;Lemos;Heriberto;35314764N;360070240447;1968-05-12;SINGLE;Avenida de Ourense, 18-3º A;Avenida;de Ourense, 18-3º A;;Cangas;36940;ESO_STUDIES;Española
21;Graña;Díaz;Antón;36044380E;360060027559;1962-02-09;SINGLE;Rúa Félix Ozami, 9;Rúa;Félix Ozami, 9;;Cangas;36940;WITHOUT_STUDIES;Española
22;Rodrigues;Parcero;Lara;77010427X;361032658972;9999-12-31;SINGLE;NULL;;;;NULL;NULL;UNKNOWN;Española
23;Díaz;Fernández;María;53173786V;361018398659;1978-09-07;UNKNOWN;NULL;;;;NULL;NULL;UNKNOWN;Española
24;Álvarez;Fernández;Laura;53114904S;361027549395;1984-05-30;UNKNOWN;Subida Torre del Gallo, 14-2º;Subida;Torre del Gallo, 14-2º;;Cangas;36949;UNKNOWN;Española
25;Reboreda;Barcia;José Manuel;36019653C;360062262502;1957-06-19;DIVORCED;Avenida de Bueu, 32 - 3º A (Edificio Alejandría);Avenida;de Bueu, 32 - 3º A (Edificio Alejandría);;Cangas;36940;FIVE_YEARS_UNIVERSITY_DEGREE;Española
26;Rodal;Soliño;Patricia;53118163P;361013781156;1982-10-12;MARRIED;Travesía Campo de Fútbol, 3-1º;Travesía;Campo de Fútbol, 3-1º;;Cangas;36947;SUPERIOR_CYCLE;Española
27;Costa;Martínez;Yolanda;77011481Y;361037554543;1991-06-25;UNKNOWN;NULL;;;;NULL;NULL;UNKNOWN;Española
28;González;Rodríguez;Carlos;53113265D;361030402815;NULL;UNKNOWN;NULL;;;;NULL;NULL;UNKNOWN;Española
29;Suárez;López;Nahiara;53115314B;361023894923;1985-10-07;UNKNOWN;NULL;;;;NULL;NULL;UNKNOWN;Española
30;Fernández;Fernández;María Manuela;33849458J;270041520560;NULL;UNKNOWN;NULL;;;;NULL;NULL;UNKNOWN;Española
32;Martínez;Vidal;María Isabel;53114131R;361013623229;NULL;UNKNOWN;NULL;;;;NULL;NULL;UNKNOWN;Española
34;Vaquero;González;Sara;71889568D;331021559089;1981-09-26;UNKNOWN;NULL;;;;NULL;NULL;UNKNOWN;Española
35;Álvarez;Fernández;María Vanessa;53115194Y;361013716892;1979-12-06;UNKNOWN;NULL;;;;NULL;NULL;UNKNOWN;Española
36;Chapela;Escaneo;Ruth;53113813M;361013406694;1978-04-29;UNKNOWN;NULL;;;;NULL;NULL;UNKNOWN;Española
37;Fernández;Fandiño;Amelia;35314690F;360082731017;1969-03-31;UNKNOWN;NULL;;;;NULL;NULL;UNKNOWN;Española
38;González;Gil;Rosa;35309649A;360080928130;1968-05-19;UNKNOWN;NULL;;;;NULL;NULL;UNKNOWN;Española
39;González;Soliño;Sofía;36172837R;361022446084;1982-03-09;UNKNOWN;NULL;;;;NULL;NULL;PROFESSIONAL_FORMATION_I;Española
40;Juncal;Pérez;Jennifer;53118350B;361023358591;1984-04-12;SINGLE;Rúa Daniel Castelao, 23-2º D;Rúa;Daniel Castelao, 23-2º D;;Moaña;36950;ESO_STUDIES;Española
41;Pérez;Cidrás;Elvira;76806021M;360079225778;1959-09-06;UNKNOWN;NULL;;;;NULL;NULL;PROFESSIONAL_FORMATION_I;Española
42;Guardado;Salgado;Sergio;73240986Q;361002540977;NULL;UNKNOWN;NULL;;;;NULL;NULL;UNKNOWN;Española
43;Oropesa;Fernández;José Mida;53611292V;361029788075;NULL;UNKNOWN;NULL;;;;NULL;NULL;UNKNOWN;Española
44;Paredes;Ferral;Paulo;39452531X;361035014658;NULL;UNKNOWN;NULL;;;;NULL;NULL;UNKNOWN;Española
45;Pereiras;Malvido;Francisco;78739288F;361027512619;1986-11-03;UNKNOWN;NULL;;;;NULL;NULL;UNKNOWN;Española
46;Pereiras;Malvido;Sandra;78739277L;361010719592;1982-11-11;MARRIED;Rúa Estrella, 9 - 2º izqda.;Rúa;Estrella, 9 - 2º izqda.;;Cangas;36940;MID_CYCLE;Española
47;Fernández;Pastoriza;María Luisa;78733449X;361025850885;1968-01-26;UNKNOWN;NULL;;;;NULL;NULL;FOUR_YEARS_UNIVERSITY_DEGREE;Española
48;Santomé;Parada;Raquel;39451591J;361032980789;1990-08-07;SINGLE;Calle Villa de Madrid, 13-1º A;Calle;Villa de Madrid, 13-1º A;;Moaña;36950;FIVE_YEARS_UNIVERSITY_DEGREE;Española
49;Pazó;Rodríguez;Paula;78737072E;361014714982;1977-05-20;UNKNOWN;NULL;;;;NULL;NULL;UNKNOWN;Española
50;Piñeiro;Pérez;Nuria;52492688H;360078939529;NULL;UNKNOWN;NULL;;;;NULL;NULL;UNKNOWN;Española
51;Pomes;González;María Aranzazu;72973094M;501013661490;NULL;UNKNOWN;NULL;;;;NULL;NULL;UNKNOWN;Española
52;Lago;Torrado;Alba Luisa;39454133W;361025378720;NULL;UNKNOWN;NULL;;;;NULL;NULL;UNKNOWN;Española
53;Otero;Vidal;Milagros;78739096E;361022559757;NULL;UNKNOWN;NULL;;;;NULL;NULL;UNKNOWN;Española
54;Fernández;Sotelo;Ana;53613123P;361038688534;1991-09-17;SINGLE;Rúa Bayona, 4 - 1º A;Rúa;Bayona, 4 - 1º A;;Cangas;36940;ESO_STUDIES;Española
55;Mariño;Marcos;Bárbara;53114934E;361006948316;NULL;UNKNOWN;NULL;;;;NULL;NULL;UNKNOWN;Española
56;Porto;Rodríguez;Rosa;53118183M;361022034442;NULL;UNKNOWN;NULL;;;;NULL;NULL;UNKNOWN;Española
57;Carballal;Barcia;Noelia;76991690H;361019331475;NULL;UNKNOWN;NULL;;;;NULL;NULL;UNKNOWN;Española
58;Otero;Pazos;Juan José;52493880Z;361002740637;NULL;UNKNOWN;NULL;;;;NULL;NULL;UNKNOWN;Española
59;Fernández;Santos;Francisco Javier;78735868Z;361022653424;NULL;UNKNOWN;NULL;;;;NULL;NULL;UNKNOWN;Española
60;Pérez;Áñez;Begoña;51094351N;281135889033;1982-07-04;SINGLE;Rúa Redondela, 1-4º A;Rúa;Redondela, 1-4º A;;Cangas;36940;PROFESSIONAL_FORMATION_II;Española
61;Fernández;García;Laura;33351315G;271006152256;1980-07-17;SINGLE;Lugar de Seas, 33;Lugar;de Seas, 33;;Lalín;36500;FIVE_YEARS_UNIVERSITY_DEGREE;Española
62;Suárez;Míguez;María del Pilar;76995469W;360083074961;1968-12-12;MARRIED;Avenida de Vigo, 112 bj;Avenida;de Vigo, 112 bj;;Redondela;36320;WITHOUT_STUDIES;Española
63;Álvarez;González;María José;36079489X;360074133884;1967-12-15;UNKNOWN;NULL;;;;NULL;NULL;UNKNOWN;Española
64;Rodríguez;Prego;María del Rosario;36066820Z;361036973048;1965-12-21;UNKNOWN;NULL;;;;NULL;NULL;UNKNOWN;Española
65;Piñeiro;Parcero;Víctor José;53176887J;361018432207;1979-03-26;SINGLE;Bajada de Areamilla, 1;Bajada;de Areamilla, 1;;Cangas;36940;BACHELOR;Española
66;Bamio;González;Avelino;78737193M;360082666248;1974-05-31;LEGAL_PARTNER;Avenida Andurique, 48 - 3º F;Avenida;Andurique, 48 - 3º F;;Poio;36163;ESO_STUDIES;Española
67;González;Graña;Yago;53119709J;361031333813;1989-04-24;SINGLE;Rúa Antonio Soage Jalda, 6 - 5º A;Rúa;Antonio Soage Jalda, 6 - 5º A;;Cangas;36940;WITHOUT_STUDIES;Española
68;Corbillón;Fraga;Alejandra;36131467P;361014702454;1980-08-10;SINGLE;Avenida de Balaídos, 4 - 5º F;Avenida;de Balaídos, 4 - 5º F;;Vigo;36210;EGB_STUDIES;Española
69;García;Iriarte;Paula;36165392P;361019824761;1980-11-08;SINGLE;Calle Sanjurjo Badía, 93 - 4º dcha;Calle;Sanjurjo Badía, 93 - 4º dcha;;Vigo;36207;PROFESSIONAL_FORMATION_I;Española
70;Santomé;Cordeiro;Madelaine;78736126L;361023863092;1986-11-29;SINGLE;Avenida de Lugo, 1 - 2º Dcha.;Avenida;de Lugo, 1 - 2º Dcha.;;Cangas;36940;PROFESSIONAL_FORMATION_II;Española
71;López;Estévez;Guillermo;78734714X;361001479031;1972-12-03;SINGLE;Rúa Redondela, 7 - 1º C;Rúa;Redondela, 7 - 1º C;;Cangas;36940;PROFESSIONAL_FORMATION_II;Española
72;Pastoriza;Durán;Sara;53119002L;361014876650;1983-09-13;SINGLE;Lugar de Outeiro-Sabaceda, 5;Lugar;de Outeiro-Sabaceda, 5;;Moaña;36950;SUPERIOR_CYCLE;Española
73;Monagas;Ramírez;María Eugenia;44303556J;351006320458;1974-12-25;MARRIED;Lugar Souto San Pedro, 1;Lugar;Souto San Pedro, 1;;Cangas;36940;ESO_STUDIES;Española
75;Cordeiro;Hermelo;Lara;77010826H;361029832939;1988-03-08;SINGLE;Camino Vereda, 21 Vilariño Hío;Camino;Vereda, 21 Vilariño Hío;;Cangas;36948;PROFESSIONAL_FORMATION_II;Española
76;Ramonet;Lago;María;77010395R;361032211358;1989-05-11;SINGLE;Rúa Espírito Santo, 14;Rúa;Espírito Santo, 14;;Redondela;36800;MID_CYCLE;Española
77;Patiño;González;María del Rosario;53117096E;361023889162;1985-10-15;MARRIED;Avenida José Novas, 28   Aldán;Avenida;José Novas, 28   Aldán;;Cangas;36946;BACHELOR;Española
78;Rodas;García;Darío;77014891N;361045870877;1995-06-07;SINGLE;Camiño da Choupana, 11 Bloque 2, Portal 5 Bajo J;Camiño;da Choupana, 11 Bloque 2, Portal 5 Bajo J;;Cangas;36940;ESO_STUDIES;Española
79;Enríquez;Abal;Diego;77011046P;361036653756;1991-06-17;SINGLE;Avenida de Lugo, 17-3º A;Avenida;de Lugo, 17-3º A;;Cangas;36940;ESO_STUDIES;Española
80;Pregal;García;Francisco Javier;53114183F;361039462817;1991-01-05;SINGLE;Avenida de Vigo, 103-5º J;Avenida;de Vigo, 103-5º J;;Cangas;36940;ESO_STUDIES;Española
81;Guimerans;Juncal;Carmen;52494100G;361038018325;1969-10-17;MARRIED;Lugar Castelo, 13 Cimadevila-Darbo;Lugar;Castelo, 13 Cimadevila-Darbo;;Cangas;36940;PROFESSIONAL_FORMATION_I;Española
82;Ferrari;Docío;David;36175453H;361024124689;1984-11-21;SINGLE;Rúa Berbetaña, 13;Rúa;Berbetaña, 13;;Cangas;36940;BACHELOR;Española
83;Reguera;Villar;Andrés;36175429V;361021060503;1994-02-14;SINGLE;Rúa dos Barreiros, 5-2º Izqda.;Rúa;dos Barreiros, 5-2º Izqda.;;Cangas;36940;ESO_STUDIES;Española
84;González;Rial;Manuel;73240672R;361023259369;1975-09-20;SINGLE;Lugar de Menduiña - Aldán 7;Lugar;de Menduiña - Aldán 7;;Cangas;36945;FOUR_YEARS_UNIVERSITY_DEGREE;Española
85;Caride;Rodríguez;Ignacio;76999644Z;361021652910;1984-10-09;SINGLE;Rúa Riofrío, 12  Angorén  Chapela;Rúa;Riofrío, 12  Angorén  Chapela;;Redondela;36320;ESO_STUDIES;Española
86;Martínez;Santomé;María Nuria;35311587D;361001341009;1966-08-01;DIVORCED;Avenida Concepción Arenal, 132 - 4º B;Avenida;Concepción Arenal, 132 - 4º B;;Moaña;36950;BACHELOR;Española
87;Da;Silva Rial;Leticia;53186418E;360039644896;1991-02-18;SINGLE;Calle Real, 60 Bloque 2, 3º E;Calle;Real, 60 Bloque 2, 3º E;;Cangas;36940;ESO_STUDIES;Española
88;Camiña;Gallego;Blanca;53112852X;361016214846;1978-08-23;SINGLE;Avenida de Bueu, 21 - 1º D;Avenida;de Bueu, 21 - 1º D;;Cangas;36940;FIVE_YEARS_UNIVERSITY_DEGREE;Española
89;Novas;Torres;Ángela María;53110091D;360081136476;1974-01-13;DIVORCED;Avenida de Vigo, 3 - 4º B;Avenida;de Vigo, 3 - 4º B;;Cangas;36940;EGB_STUDIES;Española
90;Lima de Medeiros;de Souza;Marcielle;Y2233259L;361044836415;1983-06-28;MARRIED;Calle Cormorán, 2 - Bloque 1 - 1º F;Calle;Cormorán, 2 - Bloque 1 - 1º F;;Bueu;36930;BACHELOR;Brasileña
91;Paz;Mariño;Jesús;78737396R;360079047845;1972-08-08;MARRIED;Rúa San Roque, 72;Rúa;San Roque, 72;;Cangas;36940;PROFESSIONAL_FORMATION_II;Española
92;Rodríguez;Prego;Ramona;36047979X;360069608735;1961-12-31;MARRIED;Rúa Pai Crespo, 86 - 2º B;Rúa;Pai Crespo, 86 - 2º B;;Redondela;36800;MID_CYCLE;Española
93;Piñeiro;Soage;Alba;77010797N;361037838974;1992-03-10;SINGLE;Rúa das Gruncheiras, 10 Bajo;Rúa;das Gruncheiras, 10 Bajo;;Cangas;36940;MID_CYCLE;Española
94;Gómez;Moreno;Marta;36122494M;360079621054;1971-08-09;DIVORCED;Avenida de Vigo, 83 - Chapela;Avenida;de Vigo, 83 - Chapela;;Redondela;36320;WITHOUT_STUDIES;Española
95;Sánchez;Vidal;Olga;35313740T;360070635420;1969-06-29;MARRIED;Rúa das Camelias, 4 - 3º D - Lourizán;Rúa;das Camelias, 4 - 3º D - Lourizán;;Pontevedra;36153;EGB_STUDIES;Española
96;Martínez;Portela;Guadalupe;53613329F;361042170329;1993-05-27;SINGLE;Rúa Bouza Vella-Hio, 10 ;Rúa;Bouza Vella-Hio, 10;;Cangas;36948;MID_CYCLE;Española
97;Pedrouso;Calviño;Damián;53118143B;361029395530;1987-12-13;SINGLE;Rúa Pazos Fontenla, 126 - 3º I;Rúa;Pazos Fontenla, 126 - 3º I;;Bueu;36930;ESO_STUDIES;Española
98;Soaje;Pérez;Lorena;76829574Y;361005375401;1977-09-16;MARRIED;Lugar Longarelas, 2  Vilariño  Hio;Lugar;Longarelas, 2  Vilariño;Hío;Cangas;36948;MID_CYCLE;Española
100;Acebedo;Acebedo;Amelia;71014904N;361024329706;1979-11-25;LEGAL_PARTNER;Rúa Redondela, 4 - 2º A;Rúa;Redondela, 4 - 2º A;;Cangas;36940;ESO_STUDIES;Española
101;Cantos;Menduiña;María Begoña;78735401F;361010774762;1982-10-30;SINGLE;Rúa San José, 52;Rúa;San José, 52;;Cangas;36940;ESO_STUDIES;Española
102;Quiñones;Arteaga;Minerva Aracelis;X6785082J;361028997830;1972-02-05;SINGLE;Lugar Cruceiro do Vento, 62 (Mogor);Lugar;Cruceiro do Vento, 62;Mogor;Marín;36911;BACHELOR;Venezolana
103;Carragal;Álvarez;Nerea;53862045R;361049635184;1998-03-22;SINGLE;Avenida Fragata Lealtad, 12 - 3º A;Avenida;Fragata Lealtad, 12 - 3º A;;Moaña;36950;PROFESSIONAL_CERTIFICATE;Española
104;Costas;González;Laura;53118263Q;361036653352;1991-11-08;SINGLE;Calle Barbate, 2 1º A;Calle;Barbate, 2 1º A;;Cangas;36949;BACHELOR;Española
105;Mourjani;;Radouane;X7646302K;361037940523;1988-08-20;SINGLE;Avenida de Galicia, 12 - 1º;Avenida;de Galicia, 12 - 1º;;Cangas;36940;BACHELOR;Marroquí
106;Iglesias;Álvarez;Paula;35307316Q;361003241401;1974-04-02;SINGLE;Carretera de Bueu, 55 - Vilariño - Hio;Carretera;de Bueu, 55 – Vilariño;Hío;Cangas;36948;BACHELOR;Española
108;González;Martínez;Eduardo;35301401N;3600702441962;1965-07-18;SINGLE;Calle Alcalde Echeverri, 9 - 1º;Calle;Alcalde Echeverri, 9 - 1º;;Cangas;36940;BACHELOR;Española
109;Figueroa;Otero;Avelina;35911492M;360019825406;1941-07-25;WIDOWER_WIDOW;Avenida de Vigo, 91 - 4º izqda.;Avenida;de Vigo, 91 - 4º izqda.;;Cangas;36940;WITHOUT_STUDIES;Española
110;Amoedo;Rodríguez;Alba;77013546R;361042366248;1994-10-17;SINGLE;Rúa do Muiño, 3;Rúa;do Muiño, 3;;Redondela;36800;BACHELOR;Española
111;Martínez;Rial;Víctor;53612767C;361036624050;1991-12-02;SINGLE;Lugar de Castelo, 6   Darbo;Lugar;de Castelo, 6 ;Darbo;Cangas;36940;BACHELOR;Española
112;Núñez;Ferradás;Saleta;78739015X;361021942189;1984-06-23;MARRIED;Rúa Noria, 16 - 5º E;Rúa;Noria, 16 - 5º E;;Cangas;36940;SUPERIOR_CYCLE;Española
113;González;Calvar;Yara;39467274X;361038427038;1991-07-05;SINGLE;Camiño Cunchido de Arriba, 35 - Darbo;Camiño;Cunchido de Arriba, 35;Darbo;Cangas;36949;PROFESSIONAL_FORMATION_I;Española
114;García;Calviño;Rocío;77417565W;361038737539;1988-01-20;SINGLE;Lugar Torre, 13;Lugar;Torre, 13;;Bueu;36938;FIVE_YEARS_UNIVERSITY_DEGREE;Española
115;García;Villanueva;Josefa;52497009S;361061966211;1970-11-11;MARRIED;Lugar Montemogos - Beluso, 49;Lugar;Montemogos 49;Beluso;Bueu;36937;WITHOUT_STUDIES;Española
116;Losada;Costas;Marcos;36133715W;361004498155;1974-06-22;SINGLE;Camiño Vello San Roque, 32 Portal 6 - 1º K;Camiño;Vello San Roque, 32 Portal 6 - 1º K;;Cangas;36949;PROFESSIONAL_FORMATION_II;Española
119;González;Broullón;Uxía;39450149C;361033898653;1990-08-25;SINGLE;Rúa Espírito Santo, 28 - 2;Rúa;Espírito Santo, 28 - 2;;Redondela;36800;SUPERIOR_CYCLE;Española
120;Araujo;Rodríguez;Ana Isabel;34876001C;361021683020;1976-11-20;DIVORCED;Rúa Menéndez Pelayo, 32 - 3º D;Rúa;Menéndez Pelayo, 32 - 3º D;;Vigo;36211;EGB_STUDIES;Española
121;Villaverde;Iglesias;Josefa;53117066S;361018346521;1983-03-03;SINGLE;Avenida de Orense - Interior, 5 - 4º;Avenida;de Orense - Interior, 5 - 4º;;Cangas;36940;EGB_STUDIES;Española
122;Pérez;Mallo;Nora;36165993B;361017939931;1982-10-28;SINGLE;Barrio Florida, 10 Balea;Barrio;Florida, 10;Balea;Cangas;36940;THREE_YEARS_UNIVERSITY_DEGREE;Española
123;Ares;Márquez;Fátima;77013030Z;361037556563;1992-10-08;SINGLE;Lugar Gándara, 84;Lugar;Gándara, 84;;Moaña;36950;FIVE_YEARS_UNIVERSITY_DEGREE;Española
124;Bastón;Otero;Natalia;53119842P;361023033643;1984-09-20;SINGLE;Camiño Fonte, 10;Camiño;Fonte, 10;;Cangas;36940;MID_CYCLE;Española
126;Rodríguez;Fernández;Cristina;39451667C;361040989757;1993-08-29;SINGLE;Rúa do Sol, 35;Rúa;do Sol, 35;;Cangas;36940;FOUR_YEARS_UNIVERSITY_DEGREE;Española
127;Jalda;Blanco;Rosa;36176985D;361023358187;1984-04-18;SINGLE;Rúa Xeira, 28;Rúa;Xeira, 28;;Cangas;36950;UNKNOWN;Española
130;Alemparte;Veleiro;Gladys;53191494S;361024032642;1965-05-08;DIVORCED;Avenida. de las Camelias, 106 - 3º B;Avenida.;de las Camelias, 106 - 3º B;;Vigo;36211;BACHELOR;Española
131;Díaz;Bernárdez;Arancha;77012454J;361055770537;1999-09-17;SINGLE;Rúa Antonio Nores, 7 - 1º B;Rúa;Antonio Nores, 7 - 1º B;;Cangas;36940;BACHELOR;Española
132;Piñeiro;Santos;Pablo;78733747D;360074092458;1969-12-09;SINGLE;Los Pinos, 2;Los;Pinos, 2;;Cangas;36940;SUPERIOR_CYCLE;Española
133;Santaclara;Corbal;Ana María;78736557J;361027529187;1986-11-27;SINGLE;Rúa La Guardia, 10 - 1º B;Rúa;La Guardia, 10 - 1º B;;Cangas;36940;WITHOUT_STUDIES;Española
134;Martínez;García;Tania;53974784V;361047352250;1992-05-08;SINGLE;Rúa Roris, 35 - 2º;Rúa;Roris, 35 - 2º;;Vigo;36216;MID_CYCLE;Española
135;Rodríguez;Lemos;Félix Segundo;78736514Q;361015181188;1973-01-29;SINGLE;Avenida de Ourense, 98 Portal 2, 1º B;Avenida;de Ourense, 98 Portal 2, 1º B;;Cangas;36947;THREE_YEARS_UNIVERSITY_DEGREE;Española
136;Bastón;Pazos;Daniel;53111652Y;361008707349;1979-06-26;SINGLE;Lugar As Means, 57;Lugar;As Means, 57;;Bueu;36930;EGB_STUDIES;Española
137;Rodas;García;Cristina;77010739T;361029189103;1985-03-03;SINGLE;Rúa Enseñanza, 74 - 1º B;Rúa;Enseñanza, 74 - 1º B;;Cangas;36940;FIVE_YEARS_UNIVERSITY_DEGREE;Española
138;Paz;Corrales;Esteban;77015343G;361051067451;1996-07-30;SINGLE;Barrio Quintans - Meira, 246;Barrio;Quintans - Meira, 246;;Moaña;36950;SUPERIOR_CYCLE;Española
139;Costas;Pérez;Roberto;53613117W;361052889940;1999-04-03;SINGLE;Rúa Iglesario - Hio 3;Rúa;Iglesario 3;Hío;Cangas;36945;ESO_STUDIES;Española
140;Salgado;Gómez;José Manuel;78734142J;360072040304;1970-06-15;SINGLE;Rúa Regao, 9 - 2º Izqda.;Rúa;Regao, 9 - 2º Izqda.;;Cangas;36940;EGB_STUDIES;Española
141;Fernández;Pastoriza;Izan;53861191K;361056074873;2000-03-14;SINGLE;Avenida de Bueu, 15 - 4º E;Avenida;de Bueu, 15 - 4º E;;Cangas;36940;ESO_STUDIES;Española
142;García;Hermelo;Manuel;77478574S;361063838715;1998-04-12;SINGLE;Rúa Méndez Núñez, 27 Portal 1 2º B;Rúa;Méndez Núñez, 27 Portal 1 2º B;;Cangas;36940;BACHELOR;Española
143;Fondado;Alves;Diego;35570582R;361040770903;1991-08-08;SINGLE;Torneiros Fase 4 Portal 8 4º D;Torneiros;Fase 4 Portal 8 4º D;;Porriño, O;36410;ESO_STUDIES;Española
144;Martínez;Molanes;Adrián;73241972J;361018538196;1979-03-03;SINGLE;Lugar Outeiro 32;Lugar;Outeiro 32;Balea;Cangas;36940;BACHELOR;Española
145;Leal;Galiñanes;María de los Ángeles;53611213F;151041021431;1990-07-30;SINGLE;Lugar Balea Centro 24 A;Lugar;Balea Centro 24 A;;Cangas;36940;EGB_STUDIES;Española
146;Rocca;;Alessandro;Y6488037G;361063970067;1980-05-25;SINGLE;Calle Baiona, 22 - 2º F;Calle;Baiona, 22 - 2º F;;Cangas;36940;ESO_STUDIES;Italiana
147;Cruz;Capelao;Ana Catarina;Y0029485J;281391090272;1997-08-23;SINGLE;Avenida de Vigo, 5 - 1º D;Avenida;de Vigo, 5 - 1º D;;Cangas;36940;PROFESSIONAL_FORMATION_II;Portuguesa
148;Martínez;Blanco;José;28862466L;350052921322;1962-10-17;LEGALLY_SEPARATED;Avenida de Bueu 34;Avenida;de Bueu, 34;;Cangas;36940;PROFESSIONAL_FORMATION_II;Española
149;Vázquez;González;Noelia;39457859W;361049649433;1996-09-20;SINGLE;Rúa dos Pinos, 8 - 3º D;Rúa;dos Pinos, 8 - 3º D;;Cangas;36940;ESO_STUDIES;Española
150;Del Castillo;Castillo Vilavedra;Daniel;44654266L;361043873788;1997-05-27;SINGLE;Avenida Andurique, 42 - 4º Dcha.;Avenida;Andurique, 42 - 4º Dcha.;;Poio;36163;ESO_STUDIES;Española
151;Nogueira;Cadabón;Abel;53112878J;361026739346;1986-10-03;MARRIED;Rúa Arrecife, 6 - 1º B;Rúa;Arrecife, 6 - 1º B;;Cangas;36940;MID_CYCLE;Española
152;Lemos;Vizcaya;Pedro;53118470Q;361018366529;1981-05-13;SINGLE;Carretera de Bueu, Edificio Covelo, 72 B Vilariño 1º C;Carretera;de Bueu, Edificio Covelo, 72 B Vilariño 1º C;;Cangas;36948;SUPERIOR_CYCLE;Española
153;Portela;Vidal;Silvia;35310742S;361002309591;1968-09-22;MARRIED;Lugar Sierra Poniente - Darbo, 145;Lugar;Sierra Poniente 145;Darbo;Cangas;36949;FIVE_YEARS_UNIVERSITY_DEGREE;Española
154;Rial;Padín;Miriam;53119544D;361045870776;1994-03-30;SINGLE;Calle Outeiro - Balea, 13;Calle;Outeiro 13;Balea;Cangas;36949;PROFESSIONAL_FORMATION_I;Española
155;Barral;Rey;Diana;36173511P;361010821545;1982-10-09;SINGLE;Travesía Taboada Leal, 12 - 1º D;Travesía;Taboada Leal, 12 - 1º D;;Vigo;36203;FIVE_YEARS_UNIVERSITY_DEGREE;Española
156;Bastón;Cadabón;Romina;73241889E;361029826875;1988-02-01;SINGLE;Avenida de Bueu, 4 - 5º A;Avenida;de Bueu, 4 - 5º A;;Cangas;36949;FIVE_YEARS_UNIVERSITY_DEGREE;Española
157;Vella;Martínez;Jesús;53117779S;361018358445;1981-05-06;MARRIED;Rúa Serra Nacente, 12 A   Darbo;Rúa;Serra Nacente, 12 A;Darbo;Cangas;36940;BACHELOR;Española
158;Castiñeira;Rivas;Eduardo;73240917Q;361022652515;1984-07-30;SINGLE;Lugar Amasandía, 191 Bajo A;Lugar;Amasandía, 191 Bajo A;;Moaña;36950;MID_CYCLE;Española
159;Díaz;Garrido;Jason;53610033T;361045871281;1994-12-13;SINGLE;Lugar de Cabalo, 21 Beluso;Lugar;de Cabalo 21;Beluso;Bueu;36937;ESO_STUDIES;Española
160;Chamadoira;Molanes;María del Mar;39455024L;361029178086;1988-10-02;MARRIED;Camiño Choupana, 13 - 1º 2B   Darbo;Camiño;Choupana, 13 - 1º 2B ;Darbo;Cangas;36940;ESO_STUDIES;Española
161;Marin;Martínez;Raquel;73241286V;361022654939;1984-03-11;MARRIED;Rúa Telleiro, 2  - Espíritu Santo  -  Coiro;Rúa;Telleiro, 2;Espíritu Santo  -  Coiro;Cangas;36947;ESO_STUDIES;Española
162;Caamaño;Conde;Verónica;36166569N;361019372501;1976-08-09;SINGLE;Rúa Padre Feijoó, 4 - 5º A;Rúa;Padre Feijoó, 4 - 5º A;;Vigo;36204;BACHELOR;Española
163;Novas;Piñeiro;Francisco Javier;78734368D;360077123407;1970-03-27;SINGLE;Estrada Herbello-Magdalena, 168 - 3º Izqda.  Piñeiro - Aldán;Estrada;Herbello-Magdalena, 168 - 3º Izqda.  Piñeiro;Aldán;Cangas;36945;EGB_STUDIES;Española
164;Cordeiro;Fernández;Lino;78736573Y;360082701210;1972-07-23;SINGLE;Rúa Camiño de Limens, 44 - Hio;Rúa;Camiño de Limens, 44 - Hio;;Cangas;36948;PROFESSIONAL_FORMATION_I;Española
165;More;Valladares;José Andrés;X8679096T;361040555984;1967-11-30;LEGALLY_SEPARATED;Avenida de Marín, 20 Portal 2, 1º D;Avenida;de Marín, 20 Portal 2, 1º D;;Cangas;36940;ESO_STUDIES;Peruana
166;Alfaya;Malvido;Lucía;73241459Y;361013780247;1981-05-26;MARRIED;Rúa do Palomar, 6 - Ático  Sampedro;Rúa;do Palomar, 6 – Ático;Sampedro;Cangas;36949;MID_CYCLE;Española
167;Prieto;Juárez;Noelia;05928499L;301026625470;1982-06-08;SINGLE;Calle Ángel Araujo Escribano, 69 Portal 1 - 1º B   Seixo;Calle;Ángel Araujo Escribano, 69 Portal 1 - 1º B;Seixo;Marín;36913;FIVE_YEARS_UNIVERSITY_DEGREE;Española
168;Refojos;Giráldez;José Carlos;35310141N;360080613585;1967-01-12;SINGLE;Calle Ramón Franco, 21;Calle;Ramón Franco, 21;;Cangas;36940;PROFESSIONAL_FORMATION_II;Española
169;Souaf;Khalafi;Issam;77481641T;361034374054;1989-04-19;SINGLE;Calle Grecia, 14 - 2L Monteporreiro;Calle;Grecia, 14 – 2L;Monteporreiro;Pontevedra;36162;EGB_STUDIES;Española
170;Pazos;Veiga;Laura;53118182G;361029760591;1988-05-13;SINGLE;Travesía Montenegro 2 A;Travesía;Montenegro 2 A;;Moaña;36950;THREE_YEARS_UNIVERSITY_DEGREE;Española
171;Portas;Fernández;Jesús;53614737N;361044359596;2000-03-27;SINGLE;Avenida de Lugo, 55 bajo B   Edificio Romarigo    Coiro;Avenida;de Lugo, 55 bajo B   Edificio Romarigo;Coiro;Cangas;36947;BACHELOR;Española
172;Armillas;González;María Yasmin;43133389V;71013645032;1979-07-29;SINGLE;Rúa Barreiros, 5 - 2º B;Rúa;Barreiros, 5 - 2º B;;Cangas;36940;EGB_STUDIES;Española
173;Ferreira;Pousa;José Pablo;53117630G;311003558652;1984-03-08;SINGLE;Lugar Bon de Abajo, 69  -  Beluso;Lugar;Bon de Abajo, 69;Beluso;Bueu;36930;MID_CYCLE;Española
174;García;Bermúdez;Antonio;78735502Q;360083626447;1971-04-06;MARRIED;Lugar Menduiña, 49 - Aldán;Lugar;Menduiña, 49;Aldán;Cangas;36945;EGB_STUDIES;Española
175;Costas;Malvido;Janette;53114821R;361028097548;1987-12-06;SINGLE;Lugar de Sabaceda, 41;Lugar;de Sabaceda, 41;;Moaña;36954;UNKNOWN;Española
176;Pazos;Pouso;Paula;52931738K;151042041850;1987-01-17;MARRIED;Avenida Fragata Blanca, 9 - 1º B;Avenida;Fragata Blanca, 9 - 1º B;;Moaña;36950;SUPERIOR_CYCLE;Española
177;Ferradás;González;Cristina;52495931H;361007796256;1972-12-31;MARRIED;Lugar Bon de Abaixo - Beluso 13;Lugar;Bon de Abaixo 13;Beluso;Bueu;36930;BACHELOR;Española
178;Rodríguez;Silva ;Sara;78738794L;361032107890;1988-05-14;MARRIED;Lugar Vilela - Tirán, 5   Moña;Lugar;Vilela - Tirán, 5;;Moaña;36958;ESO_STUDIES;Española
179;Pazo;Paz;Carlos;52494527V;360078179794;1970-11-08;MARRIED;Rúa Carlos Casares Mouriño, 6 - 2º E   Coiro;Rúa;Carlos Casares Mouriño, 6 - 2º E;Coiro;Cangas;36947;PROFESSIONAL_FORMATION_II;Española
180;Gabián;Iglesias;Daniel;54319036M;361058210388;2001-03-13;SINGLE;Lugar Serra de Poente 39   Darbo;Lugar;Serra de Poente 39;Darbo;Cangas;36949;ESO_STUDIES;Española
181;Castro;Chamadouro;Leonardo;78527771K;361003547959;1974-04-17;DIVORCED;Camiño Barreiras, 8 - Limens   Hio;Camiño;Barreiras, 8 Limens;Hío;Cangas;36945;ESO_STUDIES;Española
182;Dos Santos;Santos Martins;Almerinda do Ceu;Y5232816P;361061328738;1969-08-31;SINGLE;Calle Elvira Martinez, 4;Calle;Elvira Martinez, 4;;Cangas;36940;BACHELOR;Portuguesa
183;Quian;Rodríguez;Ruben;36131781T;361025131267;1978-06-04;SINGLE;Rúa Fonte do Galo, 5 - 1º D;Rúa;Fonte do Galo, 5 - 1º D;;Cangas;36940;PROFESSIONAL_FORMATION_I;Española
184;González;Iglesias;Gabriel;78736207P;361004504421;1975-08-16;MARRIED;Rúa Real, 70 -1º Izqda.;Rúa;Real, 70 -1º Izqda.;;Cangas;36940;EGB_STUDIES;Española
185;Docampo;Puente;Carlos;36165253F;361037603750;1992-02-29;SINGLE;Rúa Aguadiña, 4 - 1ª   Sampaio;Rúa;Aguadiña, 4 – 1ª;Sampaio;Pontevedra;36215;SUPERIOR_CYCLE;Española
186;Martínez;Santaclara;Cristina;52498383D;360082762339;1974-07-25;MARRIED;Lugar Sar, 62   Beluso;Lugar;Sar, 62;Beluso;Bueu;36937;EGB_STUDIES;Española
187;Figueroa;Martínez;Jorge;77011945X;361060098656;2000-07-26;SINGLE;Avenida de Vigo, 2 - 1º B   Darbo;Avenida;de Vigo, 2 - 1º B;Darbo;Cangas;36940;PROFESSIONAL_FORMATION_I;Española
188;Pose;Boubeta;Rubén;39486482J;361043253901;1998-08-17;SINGLE;Rúa San Pedro, 1 - Bajo Izqda.;Rúa;San Pedro, 1 - Bajo Izqda.;;Cangas;36940;EGB_STUDIES;Española
189;Mouriño;Rodríguez;Andrea;53864613Q;361055772658;2000-12-09;SINGLE;Camiño Choupana Cima de Vila, 11 1-3 Pbj E;Camiño;Choupana 11 1-3 Pbj E;Cima de Vila;Cangas;36940;BACHELOR;Española
190;Azar;Caballero;Ivan;46473230M;361053542062;1990-11-06;SINGLE;Avenida De Vigo, 33 - 3º C;Avenida;De Vigo, 33 - 3º C;;Cangas;36940;ESO_STUDIES;Española
191;Arif;;Amin;X4702092H;281174701460;2002-08-19;SINGLE;Rúa do Telleiro;Rúa;do Telleiro;;Cangas;36947;PRIMARY_STUDIES;Marroquí
192;Soliño;Ferradás;Saray;53861618B;361054873689;2000-05-25;SINGLE;Lugar O Cabalo, 76;Lugar;O Cabalo, 76;;Bueu;36930;BACHELOR;Española
